﻿Build started 08/03/2014 23:03:35.
     1>Project "F:\Users\Bradley\Documents\Visual Studio 2012\Projects\GameEngine\Library\glew\build\vc10\glew_shared.vcxproj" on node 3 (Rebuild target(s)).
     1>ClCompile:
         I:\Programs\Visual Studio 2013\VC\bin\CL.exe /c /I../../include /Zi /nologo /W3 /WX- /Od /Oy- /D WIN32 /D WIN32_MEAN_AND_LEAN /D VC_EXTRALEAN /D GLEW_BUILD /D _WINDLL /Gm- /EHsc /RTC1 /MDd /GS /Gy- /fp:precise /Zc:wchar_t /Zc:forScope /Fo"tmp\glew_shared\Debug\Win32\\" /Fd"tmp\glew_shared\Debug\Win32\vc120.pdb" /Gd /TC /analyze- /errorReport:prompt ..\..\src\glew.c
         glew.c
       ResourceCompile:
         C:\Program Files (x86)\Windows Kits\8.1\bin\x86\rc.exe /D _DEBUG /l"0x0409" /nologo /fo"tmp\glew_shared\Debug\Win32\glew.res" ..\glew.rc 
     1>..\glew.rc(65): error RC2104: undefined keyword or key name: IMPLIED
         
     1>Done Building Project "F:\Users\Bradley\Documents\Visual Studio 2012\Projects\GameEngine\Library\glew\build\vc10\glew_shared.vcxproj" (Rebuild target(s)) -- FAILED.

Build FAILED.

Time Elapsed 00:00:00.59
