^C:\Users\brstone\Desktop\Work\Library\glew\build\vc10\glew_shared.vcxproj
C:\Users\brstone\Desktop\Work\Library\glew\lib\Release\Win32\glew32.lib
C:\Users\brstone\Desktop\Work\Library\glew\lib\Release\Win32\glew32.exp
